<?xml version="1.0" encoding="utf-8"?>
<!-- Generator: Adobe Illustrator 19.2.1, SVG Export Plug-In . SVG Version: 6.00 Build 0)  -->
<svg version="1.1" id="Слой_1" xmlns="http://www.w3.org/2000/svg" xmlns:xlink="http://www.w3.org/1999/xlink" x="0px" y="0px"
	 viewBox="0 0 1440 400" style="enable-background:new 0 0 1440 400;" xml:space="preserve">
<style type="text/css">
	.st0{clip-path:url(#SVGID_2_);}
	.st1{opacity:0.2;clip-path:url(#SVGID_2_);}
	.st2{opacity:0.2;}
	.st3{clip-path:url(#SVGID_8_);}
	.st4{opacity:0.3;clip-path:url(#SVGID_8_);}
	.st5{opacity:0.3;}
	.st6{fill:#98C15C;}
	.st7{font-family:'SourceSansPro-Black';}
	.st8{font-size:48.7022px;}
	.st9{fill:#FFFFFF;}
	.st10{fill:none;}
	.st11{font-family:'SourceSansPro-Regular';}
	.st12{font-size:18.8836px;}
	.st13{fill:#F1F1F3;}
	.st14{font-family:'SourceSansPro-LightIt';}
	.st15{font-family:'MyriadPro-Regular';}
</style>
<g>
	<defs>
		<line id="SVGID_1_" x1="1440" y1="0" x2="1440" y2="400"/>
	</defs>
	<clipPath id="SVGID_2_">
		<use xlink:href="#SVGID_1_"  style="overflow:visible;"/>
	</clipPath>
	<g class="st0">
		<g>
			<defs>
				<polyline id="SVGID_3_" points="1445.1,403.5 1445.1,-550.1 -7.2,-550.1 				"/>
			</defs>
			<clipPath id="SVGID_4_">
				<use xlink:href="#SVGID_3_"  style="overflow:visible;"/>
			</clipPath>
		</g>
	</g>
	<g class="st1">
		<defs>
			<line id="SVGID_5_" class="st2" x1="1440" y1="0" x2="1440" y2="400"/>
		</defs>
		<use xlink:href="#SVGID_5_"  style="overflow:visible;fill:#FFFFFF;"/>
		<clipPath id="SVGID_6_">
			<use xlink:href="#SVGID_5_"  style="overflow:visible;"/>
		</clipPath>
	</g>
</g>
<g>
	<defs>
		<rect id="SVGID_7_" width="1440" height="401.4"/>
	</defs>
	<clipPath id="SVGID_8_">
		<use xlink:href="#SVGID_7_"  style="overflow:visible;"/>
	</clipPath>
	<g class="st3">
		<g>
			<defs>
				<rect id="SVGID_9_" x="-25.2" y="-662.1" width="1476.2" height="1084.8"/>
			</defs>
			<clipPath id="SVGID_10_">
				<use xlink:href="#SVGID_9_"  style="overflow:visible;"/>
			</clipPath>
			<g style="clip-path:url(#SVGID_10_);">
				
					<image style="overflow:visible;" width="1280" height="952" xlink:href="1A187EF9E81D2C9A.jpg"  transform="matrix(1.1532 0 0 1.1395 -25.1524 -662.1417)">
				</image>
			</g>
		</g>
	</g>
	<g class="st4">
		<defs>
			<rect id="SVGID_11_" y="0.1" class="st5" width="1440" height="401.4"/>
		</defs>
		<use xlink:href="#SVGID_11_"  style="overflow:visible;fill:#6F7072;"/>
		<clipPath id="SVGID_12_">
			<use xlink:href="#SVGID_11_"  style="overflow:visible;"/>
		</clipPath>
	</g>
	<g class="st3">
		<g>
			<g>
				<text transform="matrix(1.0132 0 0 1 730.8066 117.2993)" class="st6 st7 st8">СКОРО</text>
			</g>
			<text transform="matrix(1.0132 0 0 1 730.8066 169.7817)"><tspan x="0" y="0" class="st9 st7 st8">КОЛЕСО</tspan><tspan x="0" y="50.1" class="st9 st7 st8">ОБОЗРЕНИЯ </tspan></text>
		</g>
		<rect x="727.4" y="239.6" class="st10" width="400" height="116.5"/>
		<text transform="matrix(1.0132 0 0 1 727.3936 253.1709)" class="st9 st11 st12">В этом году </text>
		<text transform="matrix(1.012 0 0 1 827.4707 253.1709)" class="st13 st11 st12">Ростовский</text>
		<text transform="matrix(1.012 0 0 1 926.1504 253.1709)" class="st13 st14 st12"> </text>
		<text transform="matrix(1.012 0 0 1 929.7627 253.1709)" class="st13 st11 st12">парк</text>
		<text transform="matrix(1.012 0 0 1 970.0859 253.1709)" class="st13 st14 st12"> </text>
		<text transform="matrix(1.012 0 0 1 973.6982 253.1709)" class="st13 st11 st12">культуры</text>
		<text transform="matrix(1.012 0 0 1 1052.874 253.1709)" class="st13 st14 st12"> </text>
		<text transform="matrix(1.012 0 0 1 1056.4863 253.1709)" class="st13 st11 st12">и</text>
		<text transform="matrix(1.012 0 0 1 1067.2832 253.1709)" class="st13 st14 st12"> </text>
		<text transform="matrix(1.012 0 0 1 727.3936 275.8311)" class="st13 st11 st12">отдыха</text>
		<text transform="matrix(1.012 0 0 1 787.7451 275.8311)" class="st13 st14 st12"> «</text>
		<text transform="matrix(1.012 0 0 1 798.6768 275.8311)" class="st13 st11 st12">им</text>
		<text transform="matrix(1.012 0 0 1 821.5703 275.8311)" class="st13 st14 st12">. </text>
		<text transform="matrix(1.012 0 0 1 829.2529 275.8311)" class="st13 st11 st12">Октябрьской</text>
		<text transform="matrix(1.012 0 0 1 939.8457 275.8311)" class="st13 st14 st12"> </text>
		<text transform="matrix(1.012 0 0 1 943.458 275.8311)" class="st13 st11 st12">Революции</text>
		<text transform="matrix(1.012 0 0 1 1040.25 275.8311)" class="st13 st14 st12">» </text>
		<text transform="matrix(1.012 0 0 1 727.3936 298.4912)" class="st13 st15 st12">обзавелся, новым логотипом и фирменным </text>
		<text transform="matrix(1.012 0 0 1 727.3936 321.1514)" class="st13 st15 st12">стилем, а также удобным и современным </text>
		<text transform="matrix(1.012 0 0 1 727.3936 343.8125)" class="st13 st15 st12">сайтом.</text>
		<text transform="matrix(1.0132 0 0 1 790.2676 343.8125)" class="st9 st11 st12"> </text>
		<path class="st6" d="M537.4,289.8c39.4-18.2,66.5-57.4,66.5-102.9c0-62.1-51.1-112.8-113.8-113.7v0c-0.1,0-0.2,0-0.4,0
			c-0.2,0-0.4,0-0.6,0c-0.2,0-0.4,0-0.6,0c-0.1,0-0.2,0-0.4,0v0c-62.7,0.8-113.8,51.5-113.8,113.7c0,45.5,27.1,84.7,66.5,102.9
			l-8.9,21.2h-47.2v10.5h103.4h1.9h103.4V311h-47.2L537.4,289.8z M384.7,186.8c0-57,46.7-103.3,104.4-103.5
			c57.7,0.2,104.4,46.5,104.4,103.5c0,41.4-24.6,76.7-60,93.5l-29.9-71.2l48,47.5l7.5-7.5l-48-47.5l62.8,25.9l3.9-9.7l-62.8-25.7
			h67.9v-10.5h-68.1l62.8-25.7l-3.9-9.7l-62.6,25.7l48-47.5l-7.5-7.5l-48,47.7l26-62.1l-9.5-4.1l-26,62.1V93.8h-4h-1.9h-4v67.1
			l-26-62.1l-9.5,4.1l26,62.1l-48-47.7l-7.5,7.5l48,47.5l-62.6-25.7l-3.9,9.7l62.8,25.7h-68.1v10.5h67.9L400.4,218l3.9,9.7
			l62.8-25.9l-48,47.5l7.5,7.5l48-47.5l-29.9,71.2C409.3,263.6,384.7,228.2,384.7,186.8z M489.1,290.6c-12.1-0.1-23.9-2.5-34.9-6.3
			l3.9-9.4l26.3-61.8v67.1h3.7h1.9h3.7v-67.1l26.3,61.8l3.9,9.4C513,288.1,501.2,290.5,489.1,290.6z M489.1,166.2
			c11.3,0.2,20.6,9.5,20.6,20.7c0,11.5-9.3,20.5-20.6,20.7c-11.3-0.2-20.6-9.2-20.6-20.7C468.5,175.6,477.8,166.3,489.1,166.2z
			 M490.1,311h-1.9h-45.1l7.3-17.4c11.9,4.3,24.6,6.7,37.8,6.9v0c0.2,0,0.4,0,0.6,0c0.1,0,0.2,0,0.3,0c0.1,0,0.2,0,0.3,0
			c0.2,0,0.4,0,0.6,0v0c13.2-0.2,25.9-2.6,37.8-6.9l7.3,17.4H490.1z"/>
	</g>
</g>
</svg>
